testspace/test.vcd
$date
	Thu Jan 25 13:51:34 2024
$end
$version
	Icarus Verilog
$end
$timescale
	1ps
$end
$scope module testbench $end
$var reg 1 ! clk $end
$var reg 1 " rst $end
$scope module top_ $end
$var wire 1 ! EXCLK $end
$var wire 1 # Rx $end
$var wire 1 $ Tx $end
$var wire 1 " btnC $end
$var wire 1 % clk $end
$var wire 1 & cpu_rdy $end
$var wire 1 ' led $end
$var wire 8 ( writen_data [7:0] $end
$var wire 2 ) memory_vis_signal [1:0] $end
$var wire 2 * memory_vis_data_size [1:0] $end
$var wire 32 + mem_write_data [31:0] $end
$var wire 2 , mem_vis_status [1:0] $end
$var wire 2 - mem_vis_signal [1:0] $end
$var wire 1 . mem_vis_enabled $end
$var wire 17 / mem_vis_addr [16:0] $end
$var wire 32 0 mem_read_data [31:0] $end
$var wire 17 1 mem_inst_addr [16:0] $end
$var wire 17 2 mem_data_addr [16:0] $end
$var wire 8 3 mem_data [7:0] $end
$var wire 32 4 instruction [31:0] $end
$var wire 1 5 inst_fetch_enabled $end
$var reg 1 6 rst $end
$var reg 1 7 rst_delay $end
$scope module cache $end
$var wire 1 % clk $end
$var wire 17 8 mem_vis_addr [16:0] $end
$var wire 2 9 mem_vis_signal [1:0] $end
$var wire 8 : mem_writen_data [7:0] $end
$var wire 2 ; memory_vis_signal [1:0] $end
$var wire 2 < memory_vis_data_size [1:0] $end
$var wire 32 = mem_write_data [31:0] $end
$var wire 1 . mem_vis_enabled $end
$var wire 17 > mem_inst_addr [16:0] $end
$var wire 17 ? mem_data_addr [16:0] $end
$var wire 8 @ mem_data [7:0] $end
$var wire 1 5 inst_fetch_enabled $end
$var reg 3 A MEM_VIS_CNT [2:0] $end
$var reg 17 B addr [16:0] $end
$var reg 32 C data [31:0] $end
$var reg 2 D data_size [1:0] $end
$var reg 32 E instruction [31:0] $end
$var reg 32 F mem_read_data [31:0] $end
$var reg 2 G mem_vis_status [1:0] $end
$var reg 2 H mem_vis_type [1:0] $end
$var reg 8 I writen_data [7:0] $end
$upscope $end
$scope module cpu $end
$var wire 1 J I_type $end
$var wire 1 K J_type $end
$var wire 1 L R_type $end
$var wire 1 M U_type $end
$var wire 1 % clk $end
$var wire 1 5 inst_fetch_enabled $end
$var wire 32 N instruction [31:0] $end
$var wire 32 O mem_read_data [31:0] $end
$var wire 1 . mem_vis_enabled $end
$var wire 2 P mem_vis_status [1:0] $end
$var wire 32 Q mem_write_data [31:0] $end
$var wire 2 R memory_vis_data_size [1:0] $end
$var wire 1 & rdy_in $end
$var wire 1 6 rst $end
$var wire 1 S special_func_code $end
$var wire 1 T write_back_enabled $end
$var wire 2 U sign_bits [1:0] $end
$var wire 32 V rs2_value [31:0] $end
$var wire 5 W rs2_insdex [4:0] $end
$var wire 32 X rs1_value [31:0] $end
$var wire 5 Y rs1_index [4:0] $end
$var wire 2 Z rf_status [1:0] $end
$var wire 2 [ rf_signal [1:0] $end
$var wire 5 \ rd_index [4:0] $end
$var wire 7 ] opcode [6:0] $end
$var wire 2 ^ memory_vis_signal [1:0] $end
$var wire 17 _ mem_inst_addr [16:0] $end
$var wire 17 ` mem_data_addr [16:0] $end
$var wire 32 a immediate [31:0] $end
$var wire 4 b func_code [3:0] $end
$var wire 32 c alu_result [31:0] $end
$var wire 1 d S_type $end
$var wire 1 e B_type $end
$var reg 2 f EXE_MEM_BRANCH_SIGNAL [1:0] $end
$var reg 4 g EXE_MEM_FUNC_CODE [3:0] $end
$var reg 32 h EXE_MEM_IMM [31:0] $end
$var reg 2 i EXE_MEM_MEM_VIS_DATA_SIZE [1:0] $end
$var reg 2 j EXE_MEM_MEM_VIS_SIGNAL [1:0] $end
$var reg 32 k EXE_MEM_PC [31:0] $end
$var reg 5 l EXE_MEM_RD_INDEX [4:0] $end
$var reg 32 m EXE_MEM_RESULT [31:0] $end
$var reg 32 n EXE_MEM_RS2 [31:0] $end
$var reg 2 o EXE_MEM_WB_SIGNAL [1:0] $end
$var reg 2 p EXE_MEM_ZERO_BITS [1:0] $end
$var reg 1 q EXE_STATE_CTR $end
$var reg 3 r ID_EXE_ALU_SIGNAL [2:0] $end
$var reg 2 s ID_EXE_BRANCH_SIGNAL [1:0] $end
$var reg 4 t ID_EXE_FUNC_CODE [3:0] $end
$var reg 32 u ID_EXE_IMM [31:0] $end
$var reg 2 v ID_EXE_MEM_VIS_DATA_SIZE [1:0] $end
$var reg 2 w ID_EXE_MEM_VIS_SIGNAL [1:0] $end
$var reg 32 x ID_EXE_PC [31:0] $end
$var reg 5 y ID_EXE_RD_INDEX [4:0] $end
$var reg 32 z ID_EXE_RS1 [31:0] $end
$var reg 32 { ID_EXE_RS2 [31:0] $end
$var reg 2 | ID_EXE_WB_SIGNAL [1:0] $end
$var reg 1 } ID_STATE_CTR $end
$var reg 32 ~ IF_ID_PC [31:0] $end
$var reg 1 !" IF_STATE_CTR $end
$var reg 1 "" MEM_STATE_CTR $end
$var reg 32 #" MEM_WB_MEM_DATA [31:0] $end
$var reg 32 $" MEM_WB_PC [31:0] $end
$var reg 5 %" MEM_WB_RD_INDEX [4:0] $end
$var reg 32 &" MEM_WB_RESULT [31:0] $end
$var reg 2 '" MEM_WB_WB_SIGNAL [1:0] $end
$var reg 32 (" PC [31:0] $end
$var reg 1 )" WB_STATE_CTR $end
$var reg 3 *" alu_signal [2:0] $end
$var reg 1 +" branch_flag $end
$var reg 2 ," branch_signal [1:0] $end
$var reg 1 -" chip_enable $end
$var reg 2 ." data_size [1:0] $end
$var reg 32 /" increased_pc [31:0] $end
$var reg 2 0" mem_vis_signal [1:0] $end
$var reg 1 1" rb_flag $end
$var reg 32 2" reg_write_data [31:0] $end
$var reg 32 3" special_pc [31:0] $end
$var reg 1 4" start_cpu $end
$var reg 2 5" wb_signal [1:0] $end
$scope module alu $end
$var wire 3 6" alu_signal [2:0] $end
$var wire 4 7" func_code [3:0] $end
$var wire 32 8" imm [31:0] $end
$var wire 32 9" pc [31:0] $end
$var wire 32 :" rs1 [31:0] $end
$var wire 32 ;" rs2 [31:0] $end
$var reg 32 <" result [31:0] $end
$var reg 2 =" sign_bits [1:0] $end
$upscope $end
$scope module immediate_generator $end
$var wire 32 >" R_imm [31:0] $end
$var wire 1 -" chip_enable $end
$var wire 6 ?" inst_type [5:0] $end
$var wire 32 @" instruction [31:0] $end
$var wire 1 A" sign_bit $end
$var wire 32 B" U_imm [31:0] $end
$var wire 32 C" S_imm [31:0] $end
$var wire 32 D" J_imm [31:0] $end
$var wire 32 E" I_imm [31:0] $end
$var wire 32 F" B_imm [31:0] $end
$var reg 32 G" immediate [31:0] $end
$upscope $end
$scope module reg_file $end
$var wire 1 % clk $end
$var wire 32 H" data [31:0] $end
$var wire 5 I" rd [4:0] $end
$var wire 1 & rdy_in $end
$var wire 32 J" reg0Value [31:0] $end
$var wire 32 K" reg10Value [31:0] $end
$var wire 32 L" reg11Value [31:0] $end
$var wire 32 M" reg12Value [31:0] $end
$var wire 32 N" reg13Value [31:0] $end
$var wire 32 O" reg14Value [31:0] $end
$var wire 32 P" reg15Value [31:0] $end
$var wire 32 Q" reg16Value [31:0] $end
$var wire 32 R" reg17Value [31:0] $end
$var wire 32 S" reg18Value [31:0] $end
$var wire 32 T" reg19Value [31:0] $end
$var wire 32 U" reg1Value [31:0] $end
$var wire 32 V" reg20Value [31:0] $end
$var wire 32 W" reg21Value [31:0] $end
$var wire 32 X" reg22Value [31:0] $end
$var wire 32 Y" reg23Value [31:0] $end
$var wire 32 Z" reg24Value [31:0] $end
$var wire 32 [" reg25Value [31:0] $end
$var wire 32 \" reg26Value [31:0] $end
$var wire 32 ]" reg27Value [31:0] $end
$var wire 32 ^" reg28Value [31:0] $end
$var wire 32 _" reg29Value [31:0] $end
$var wire 32 `" reg2Value [31:0] $end
$var wire 32 a" reg30Value [31:0] $end
$var wire 32 b" reg31Value [31:0] $end
$var wire 32 c" reg3Value [31:0] $end
$var wire 32 d" reg4Value [31:0] $end
$var wire 32 e" reg5Value [31:0] $end
$var wire 32 f" reg6Value [31:0] $end
$var wire 32 g" reg7Value [31:0] $end
$var wire 32 h" reg8Value [31:0] $end
$var wire 32 i" reg9Value [31:0] $end
$var wire 2 j" rf_signal [1:0] $end
$var wire 2 k" rf_status [1:0] $end
$var wire 5 l" rs1 [4:0] $end
$var wire 32 m" rs1_data [31:0] $end
$var wire 5 n" rs2 [4:0] $end
$var wire 32 o" rs2_data [31:0] $end
$var wire 1 6 rst $end
$var wire 1 T write_back_enabled $end
$var reg 5 p" rs1_index [4:0] $end
$var reg 5 q" rs2_index [4:0] $end
$var reg 2 r" status [1:0] $end
$scope begin $ivl_for_loop0 $end
$var integer 32 s" i [31:0] $end
$upscope $end
$upscope $end
$upscope $end
$scope module main_memory $end
$var wire 1 % clk $end
$var wire 8 t" mem_data [7:0] $end
$var wire 17 u" mem_vis_addr [16:0] $end
$var wire 2 v" mem_vis_signal [1:0] $end
$var wire 8 w" writen_data [7:0] $end
$var reg 8 x" read_data [7:0] $end
$scope begin $ivl_for_loop1 $end
$var integer 32 y" i [31:0] $end
$upscope $end
$upscope $end
$upscope $end
$upscope $end
$enddefinitions $end
#0
$dumpvars
b100000000000000000 y"
bx x"
bx w"
b0 v"
bx u"
bx t"
bx s"
bx r"
bx q"
bx p"
bx o"
bx n"
bx m"
bx l"
bx k"
b0 j"
bx i"
bx h"
bx g"
bx f"
bx e"
bx d"
bx c"
bx b"
bx a"
bx `"
bx _"
bx ^"
bx ]"
bx \"
bx ["
bx Z"
bx Y"
bx X"
bx W"
bx V"
bx U"
bx T"
bx S"
bx R"
bx Q"
bx P"
bx O"
bx N"
bx M"
bx L"
bx K"
bx J"
bx I"
bx H"
bx G"
bx0 F"
bx E"
bx0 D"
bx C"
bx000000000000 B"
xA"
bx @"
bx ?"
b0 >"
bx ="
bx <"
bx ;"
bx :"
bx 9"
bx 8"
bx 7"
bx 6"
bx 5"
04"
bx 3"
bx 2"
x1"
bx 0"
bx /"
bx ."
x-"
bx ,"
x+"
bx *"
0)"
bx ("
bx '"
bx &"
bx %"
bx $"
bx #"
0""
0!"
bx ~
0}
bx |
bx {
bx z
bx y
bx x
bx w
bx v
bx u
bx t
bx s
bx r
0q
bx p
bx o
bx n
bx m
bx l
bx k
bx j
bx i
bx h
bx g
bx f
xe
xd
bx c
bx b
bx a
bx `
bx _
b0 ^
bx ]
bx \
b0 [
bx Z
bx Y
bx X
bx W
bx V
bx U
0T
xS
bx R
bx Q
bx P
bx O
bx N
xM
xL
xK
xJ
bx I
b0 H
bx G
bx F
bx E
b0 D
bx C
bx B
b0 A
bx @
bx ?
bx >
bx =
bx <
b0 ;
bx :
b0 9
bx 8
17
16
05
bx 4
bx 3
bx 2
bx 1
bx 0
bx /
0.
b0 -
bx ,
bx +
bx *
b0 )
bx (
z'
1&
0%
z$
z#
1"
0!
$end
#1000
b0 b"
b0 a"
b0 _"
b0 ^"
b0 ]"
b0 \"
b0 ["
b0 Z"
b0 Y"
b0 X"
b0 W"
b0 V"
b0 T"
b0 S"
b0 R"
b0 Q"
b0 P"
b0 O"
b0 N"
b0 M"
b0 L"
b0 K"
b0 i"
b0 h"
b0 g"
b0 f"
b0 e"
b0 d"
b0 c"
b0 `"
b0 U"
b0 J"
0-"
b0 1
b0 >
b0 _
b100000 s"
b0 ("
1%
1!
#2000
0%
0!
#3000
b100000 s"
1%
1!
#4000
0%
0!
#5000
b100000 s"
1%
1!
#6000
0%
0!
#7000
b100000 s"
1%
1!
#8000
0%
0!
#9000
b100000 s"
1%
1!
#10000
0%
0!
#11000
b100000 s"
1%
1!
#12000
0%
0!
#13000
b100000 s"
1%
1!
#14000
0%
0!
#15000
b100000 s"
1%
1!
#16000
0%
0!
#17000
b100000 s"
1%
1!
#18000
0%
0!
#19000
b100000 s"
1%
1!
#20000
0%
0!
#21000
b100000 s"
1%
1!
#22000
0%
0!
#23000
b100000 s"
1%
1!
#24000
0%
0!
#25000
b100000 s"
1%
1!
#26000
0%
0!
#27000
b100000 s"
1%
1!
#28000
0%
0!
#29000
b100000 s"
1%
1!
#30000
0%
0!
#31000
b100000 s"
1%
1!
#32000
0%
0!
#33000
b100000 s"
1%
1!
#34000
0%
0!
#35000
b100000 s"
1%
1!
#36000
0%
0!
#37000
b100000 s"
1%
1!
#38000
0%
0!
#39000
b100000 s"
1%
1!
#40000
0%
0!
#41000
b100000 s"
1%
1!
#42000
0%
0!
#43000
b100000 s"
1%
1!
#44000
0%
0!
#45000
b100000 s"
1%
1!
#46000
0%
0!
#47000
b100000 s"
1%
1!
#48000
0%
0!
#49000
b100000 s"
1%
1!
#50000
0"
0%
0!
#51000
07
b100000 s"
1%
1!
#52000
0%
0!
#53000
06
b100000 s"
1%
1!
#54000
0%
0!
#55000
1-"
14"
15
1!"
b0 Z
b0 k"
b0 r"
1%
1!
#56000
0%
0!
#57000
b0 ~
05
0!"
b1 ,
b1 G
b1 P
b11 -
b11 9
b11 v"
b11 H
b101 A
b0 /
b0 8
b0 u"
b0 B
1%
1!
#58000
0%
0!
#59000
b110111 3
b110111 @
b110111 t"
b110111 x"
b1 /
b1 8
b1 u"
b1 B
b100 A
1%
1!
#60000
0%
0!
#61000
b10 /
b10 8
b10 u"
b10 B
b1 3
b1 @
b1 t"
b1 x"
b11 A
1%
1!
#62000
0%
0!
#63000
b10 3
b10 @
b10 t"
b10 x"
b11 /
b11 8
b11 u"
b11 B
b10 A
1%
1!
#64000
0%
0!
#65000
b0 3
b0 @
b0 t"
b0 x"
b1 A
1%
1!
#66000
0%
0!
#67000
b10 ,
b10 G
b10 P
b100000000000000000 a
b100000000000000000 G"
0J
b10 5"
b0 ,"
b0 ."
b0 0"
b110 *"
0S
0L
1M
0K
b100000000000000000 D"
b100 Y
b100 l"
b0 W
b0 n"
b10 \
0d
b10 ?"
0e
b110111 ]
b0 b
0A"
b0 E"
b10 C"
b10 F"
b100000000000000000 B"
b100000000100110111 4
b100000000100110111 E
b100000000100110111 N
b100000000100110111 @"
b0 A
1%
1!
#68000
0%
0!
#69000
1}
b0 ,
b0 G
b0 P
b0 -
b0 9
b0 v"
b0 H
b0 V
b0 o"
b0 q"
b0 X
b0 m"
b100 p"
1%
1!
#70000
0%
0!
#71000
b1 U
b1 ="
b100000000000000000 c
b100000000000000000 <"
1q
b0 {
b0 ;"
b0 z
b0 :"
b100000000000000000 u
b100000000000000000 8"
b10 |
b0 v
b0 w
b0 s
b0 t
b0 7"
b110 r
b110 6"
b10 y
b0 x
b0 9"
0}
1%
1!
#72000
0%
0!
#73000
b0 2
b0 ?
b0 `
0+"
b100000000000000000 3"
b100 /"
0q
1.
1""
b1 p
b100000000000000000 m
b0 +
b0 =
b0 Q
b0 n
b100000000000000000 h
b10 o
b0 *
b0 <
b0 R
b0 i
b0 j
b0 f
b0 g
b10 l
b0 k
1%
1!
#74000
0%
0!
#75000
11"
b100000000000000000 2"
b100000000000000000 H"
b100 1
b100 >
b100 _
b11 ,
b11 G
b11 P
b10 -
b10 9
b10 v"
b10 H
b100000000000000000 &"
b10 '"
b10 %"
b10 I"
b0 $"
b100 ("
0.
0""
1%
1!
#76000
0%
0!
#77000
b1 [
b1 j"
1T
1)"
b0 ,
b0 G
b0 P
b0 -
b0 9
b0 v"
b0 H
1%
1!
#78000
0%
0!
#79000
b0 [
b0 j"
0T
0)"
b10 Z
b10 k"
b10 r"
b100000000000000000 `"
1%
1!
#80000
0%
0!
#81000
b0 Z
b0 k"
b0 r"
15
1!"
1%
1!
#82000
0%
0!
#83000
b1 ,
b1 G
b1 P
b11 -
b11 9
b11 v"
b11 H
05
0!"
b100 ~
b101 A
b100 /
b100 8
b100 u"
b100 B
1%
1!
#84000
0%
0!
#85000
b101 /
b101 8
b101 u"
b101 B
b11101111 3
b11101111 @
b11101111 t"
b11101111 x"
b100 A
1%
1!
#86000
0%
0!
#87000
b0 3
b0 @
b0 t"
b0 x"
b110 /
b110 8
b110 u"
b110 B
b11 A
1%
1!
#88000
0%
0!
#89000
b111 /
b111 8
b111 u"
b111 B
b11010000 3
b11010000 @
b11010000 t"
b11010000 x"
b10 A
1%
1!
#90000
0%
0!
#91000
b1111111 3
b1111111 @
b1111111 t"
b1111111 x"
b1 A
1%
1!
#92000
0%
0!
#93000
b10 ,
b10 G
b10 P
b11 5"
b1 ,"
b101 *"
0M
b1 ?"
1K
b111111111100 a
b111111111100 G"
b111111111100 D"
b0 Y
b0 l"
b11101 W
b11101 n"
b1 \
b1101111 ]
b1000 b
b11111111101 E"
b11111100001 C"
b111111100000 F"
b1111111110100000000000000000000 B"
b1111111110100000000000011101111 4
b1111111110100000000000011101111 E
b1111111110100000000000011101111 N
b1111111110100000000000011101111 @"
b0 A
1%
1!
#94000
0%
0!
#95000
b0 ,
b0 G
b0 P
b0 -
b0 9
b0 v"
b0 H
1}
b11101 q"
b0 p"
1%
1!
#96000
0%
0!
#97000
b1000000000000 c
b1000000000000 <"
0}
1q
b111111111100 u
b111111111100 8"
b11 |
b1 s
b1000 t
b1000 7"
b101 r
b101 6"
b1 y
b100 x
b100 9"
1%
1!
#98000
0%
0!
#99000
b1000000000000 2
b1000000000000 ?
b1000000000000 `
1+"
b1000000000000 3"
b1000 /"
1.
1""
b1000000000000 m
b111111111100 h
b11 o
b1 f
b1000 g
b1 l
b100 k
0q
1%
1!
#100000
0%
0!
#101000
b1000 2"
b1000 H"
b1000000000000 1
b1000000000000 >
b1000000000000 _
0.
0""
b1000000000000 &"
b11 '"
b1 %"
b1 I"
b100 $"
b1000000000000 ("
b11 ,
b11 G
b11 P
b10 -
b10 9
b10 v"
b10 H
1%
1!
#102000
0%
0!
#103000
b1 [
b1 j"
b0 ,
b0 G
b0 P
b0 -
b0 9
b0 v"
b0 H
1T
1)"
1%
1!
#104000
0%
0!
#105000
b0 [
b0 j"
b10 Z
b10 k"
b10 r"
b1000 U"
0T
0)"
1%
1!
#106000
0%
0!
#107000
15
1!"
b0 Z
b0 k"
b0 r"
1%
1!
#108000
0%
0!
#109000
b1000000000000 ~
05
0!"
b1 ,
b1 G
b1 P
b11 -
b11 9
b11 v"
b11 H
b101 A
b1000000000000 /
b1000000000000 8
b1000000000000 u"
b1000000000000 B
1%
1!
#110000
0%
0!
#111000
b10011 3
b10011 @
b10011 t"
b10011 x"
b1000000000001 /
b1000000000001 8
b1000000000001 u"
b1000000000001 B
b100 A
1%
1!
#112000
0%
0!
#113000
b1000000000010 /
b1000000000010 8
b1000000000010 u"
b1000000000010 B
b1 3
b1 @
b1 t"
b1 x"
b11 A
1%
1!
#114000
0%
0!
#115000
b1000000000011 /
b1000000000011 8
b1000000000011 u"
b1000000000011 B
b10 A
1%
1!
#116000
0%
0!
#117000
b11111111 3
b11111111 @
b11111111 t"
b11111111 x"
b1 A
1%
1!
#118000
0%
0!
#119000
b10 ,
b10 G
b10 P
b10 5"
b0 ,"
b10 *"
1J
b10000 ?"
0K
b11111111111111111111111111110000 a
b11111111111111111111111111110000 G"
b11111111111100010000011111110000 D"
b10 Y
b10 l"
b10000 W
b10000 n"
b10 \
b10011 ]
1A"
b11111111111111111111111111110000 E"
b11111111111111111111111111100010 C"
b11111111111111111111011111100010 F"
b11111111000000010000000000000000 B"
b11111111000000010000000100010011 4
b11111111000000010000000100010011 E
b11111111000000010000000100010011 N
b11111111000000010000000100010011 @"
b0 A
1%
1!
#120000
0%
0!
#121000
1}
b0 ,
b0 G
b0 P
b0 -
b0 9
b0 v"
b0 H
b10000 q"
b100000000000000000 X
b100000000000000000 m"
b10 p"
1%
1!
#122000
0%
0!
#123000
b11111111111110000 c
b11111111111110000 <"
1q
b100000000000000000 z
b100000000000000000 :"
b11111111111111111111111111110000 u
b11111111111111111111111111110000 8"
b10 |
b0 s
b10 r
b10 6"
b10 y
b1000000000000 x
b1000000000000 9"
0}
1%
1!
#124000
0%
0!
#125000
b11111111111110000 2
b11111111111110000 ?
b11111111111110000 `
0+"
b111111110000 3"
b1000000000100 /"
0q
1.
1""
b11111111111110000 m
b11111111111111111111111111110000 h
b10 o
b0 f
b10 l
b1000000000000 k
1%
1!
#126000
0%
0!
#127000
b11111111111110000 2"
b11111111111110000 H"
b1000000000100 1
b1000000000100 >
b1000000000100 _
b11 ,
b11 G
b11 P
b10 -
b10 9
b10 v"
b10 H
b11111111111110000 &"
b10 '"
b10 %"
b10 I"
b1000000000000 $"
b1000000000100 ("
0.
0""
1%
1!
#128000
0%
0!
#129000
b1 [
b1 j"
1T
1)"
b0 ,
b0 G
b0 P
b0 -
b0 9
b0 v"
b0 H
1%
1!
#130000
0%
0!
#131000
b0 [
b0 j"
0T
0)"
b10 Z
b10 k"
b10 r"
b11111111111110000 X
b11111111111110000 m"
b11111111111110000 `"
1%
1!
#132000
0%
0!
#133000
b0 Z
b0 k"
b0 r"
15
1!"
1%
1!
#134000
0%
0!
#135000
b1 ,
b1 G
b1 P
b11 -
b11 9
b11 v"
b11 H
05
0!"
b1000000000100 ~
b101 A
b1000000000100 /
b1000000000100 8
b1000000000100 u"
b1000000000100 B
1%
1!
#136000
0%
0!
#137000
b1000000000101 /
b1000000000101 8
b1000000000101 u"
b1000000000101 B
b100011 3
b100011 @
b100011 t"
b100011 x"
b100 A
1%
1!
#138000
0%
0!
#139000
b100110 3
b100110 @
b100110 t"
b100110 x"
b1000000000110 /
b1000000000110 8
b1000000000110 u"
b1000000000110 B
b11 A
1%
1!
#140000
0%
0!
#141000
b1000000000111 /
b1000000000111 8
b1000000000111 u"
b1000000000111 B
b10000001 3
b10000001 @
b10000001 t"
b10000001 x"
b10 A
1%
1!
#142000
0%
0!
#143000
b0 3
b0 @
b0 t"
b0 x"
b1 A
1%
1!
#144000
0%
0!
#145000
b10 ,
b10 G
b10 P
b11 ."
b0 5"
b1 0"
b100 *"
b1100 a
b1100 G"
0J
b10010000000001000 D"
b1000 W
b1000 n"
b1100 \
b1000 ?"
1d
b100011 ]
b10 b
0A"
b1000 E"
b1100 C"
b1100 F"
b100000010010000000000000 B"
b100000010010011000100011 4
b100000010010011000100011 E
b100000010010011000100011 N
b100000010010011000100011 @"
b0 A
1%
1!
#146000
0%
0!
#147000
b0 ,
b0 G
b0 P
b0 -
b0 9
b0 v"
b0 H
1}
b1000 q"
1%
1!
#148000
0%
0!
#149000
b11111111111111100 c
b11111111111111100 <"
0}
1q
b11111111111110000 z
b11111111111110000 :"
b1100 u
b1100 8"
b0 |
b11 v
b1 w
b10 t
b10 7"
b100 r
b100 6"
b1100 y
b1000000000100 x
b1000000000100 9"
1%
1!
#150000
0%
0!
#151000
b1 )
b1 ;
b1 ^
b11111111111111100 2
b11111111111111100 ?
b11111111111111100 `
b1000000010000 3"
b1000000001000 /"
1.
1""
b11111111111111100 m
b1100 h
b0 o
b11 *
b11 <
b11 R
b11 i
b1 j
b10 g
b1100 l
b1000000000100 k
0q
1%
1!
#152000
0%
0!
#153000
b0 )
b0 ;
b0 ^
01"
b1000000001000 1
b1000000001000 >
b1000000001000 _
0.
0""
b11111111111111100 &"
b0 '"
b1100 %"
b1100 I"
b1000000000100 $"
b1000000001000 ("
b1 ,
b1 G
b1 P
b0 (
b0 :
b0 w"
b0 I
b1 -
b1 9
b1 v"
b1 H
b11 D
b101 A
b0 C
b11111111111111100 /
b11111111111111100 8
b11111111111111100 u"
b11111111111111100 B
1%
1!
#154000
0%
0!
#155000
b11111111111111101 /
b11111111111111101 8
b11111111111111101 u"
b11111111111111101 B
b100 A
1%
1!
#156000
0%
0!
#157000
b11111111111111110 /
b11111111111111110 8
b11111111111111110 u"
b11111111111111110 B
b11 A
1%
1!
#158000
0%
0!
#159000
b11111111111111111 /
b11111111111111111 8
b11111111111111111 u"
b11111111111111111 B
b10 A
1%
1!
#160000
0%
0!
#161000
b1 A
1%
1!
#162000
0%
0!
#163000
b11 ,
b11 G
b11 P
b0 A
1%
1!
#164000
0%
0!
#165000
1T
1)"
b0 ,
b0 G
b0 P
b0 -
b0 9
b0 v"
b0 H
1%
1!
#166000
0%
0!
#167000
0T
0)"
b10 Z
b10 k"
b10 r"
1%
1!
#168000
0%
0!
#169000
b0 Z
b0 k"
b0 r"
15
1!"
1%
1!
#170000
0%
0!
#171000
b1 ,
b1 G
b1 P
b11 -
b11 9
b11 v"
b11 H
05
0!"
b1000000001000 ~
b101 A
b1000000001000 /
b1000000001000 8
b1000000001000 u"
b1000000001000 B
1%
1!
#172000
0%
0!
#173000
b1000000001001 /
b1000000001001 8
b1000000001001 u"
b1000000001001 B
b10011 3
b10011 @
b10011 t"
b10011 x"
b100 A
1%
1!
#174000
0%
0!
#175000
b100 3
b100 @
b100 t"
b100 x"
b1000000001010 /
b1000000001010 8
b1000000001010 u"
b1000000001010 B
b11 A
1%
1!
#176000
0%
0!
#177000
b1000000001011 /
b1000000001011 8
b1000000001011 u"
b1000000001011 B
b1 3
b1 @
b1 t"
b1 x"
b10 A
1%
1!
#178000
0%
0!
#179000
b1 A
1%
1!
#180000
0%
0!
#181000
b10 ,
b10 G
b10 P
b10 5"
b0 ."
b0 0"
b10 *"
b10000 a
b10000 G"
1J
b10000000000010000 D"
b10000 W
b10000 n"
b1000 \
b10000 ?"
0d
b10011 ]
b0 b
b10000 E"
b1000 C"
b1000 F"
b1000000010000000000000000 B"
b1000000010000010000010011 4
b1000000010000010000010011 E
b1000000010000010000010011 N
b1000000010000010000010011 @"
b0 A
1%
1!
#182000
0%
0!
#183000
b0 ,
b0 G
b0 P
b0 -
b0 9
b0 v"
b0 H
1}
b10000 q"
1%
1!
#184000
0%
0!
#185000
b100000000000000000 c
b100000000000000000 <"
0}
1q
b10000 u
b10000 8"
b10 |
b0 v
b0 w
b0 t
b0 7"
b10 r
b10 6"
b1000 y
b1000000001000 x
b1000000001000 9"
1%
1!
#186000
0%
0!
#187000
b0 2
b0 ?
b0 `
b1000000011000 3"
b1000000001100 /"
1.
1""
b100000000000000000 m
b10000 h
b10 o
b0 *
b0 <
b0 R
b0 i
b0 j
b0 g
b1000 l
b1000000001000 k
0q
1%
1!
#188000
0%
0!
#189000
11"
b100000000000000000 2"
b100000000000000000 H"
b1000000001100 1
b1000000001100 >
b1000000001100 _
0.
0""
b100000000000000000 &"
b10 '"
b1000 %"
b1000 I"
b1000000001000 $"
b1000000001100 ("
b11 ,
b11 G
b11 P
b10 -
b10 9
b10 v"
b10 H
b0 D
1%
1!
#190000
0%
0!
#191000
b1 [
b1 j"
b0 ,
b0 G
b0 P
b0 -
b0 9
b0 v"
b0 H
1T
1)"
1%
1!
#192000
0%
0!
#193000
b0 [
b0 j"
b10 Z
b10 k"
b10 r"
b100000000000000000 h"
0T
0)"
1%
1!
#194000
0%
0!
#195000
15
1!"
b0 Z
b0 k"
b0 r"
1%
1!
#196000
0%
0!
#197000
b1000000001100 ~
05
0!"
b1 ,
b1 G
b1 P
b11 -
b11 9
b11 v"
b11 H
b101 A
b1000000001100 /
b1000000001100 8
b1000000001100 u"
b1000000001100 B
1%
1!
#198000
0%
0!
#199000
b10010011 3
b10010011 @
b10010011 t"
b10010011 x"
b1000000001101 /
b1000000001101 8
b1000000001101 u"
b1000000001101 B
b100 A
1%
1!
#200000
0%
0!
#201000
b1000000001110 /
b1000000001110 8
b1000000001110 u"
b1000000001110 B
b111 3
b111 @
b111 t"
b111 x"
b11 A
1%
1!
#202000
0%
0!
#203000
b0 3
b0 @
b0 t"
b0 x"
b1000000001111 /
b1000000001111 8
b1000000001111 u"
b1000000001111 B
b10 A
1%
1!
#204000
0%
0!
#205000
b1 A
1%
1!
#206000
0%
0!
#207000
b10 ,
b10 G
b10 P
b0 a
b0 G"
b0 D"
b0 Y
b0 l"
b0 W
b0 n"
b1111 \
b0 E"
b1111 C"
b100000001110 F"
b0 B"
b11110010011 4
b11110010011 E
b11110010011 N
b11110010011 @"
b0 A
1%
1!
#208000
0%
0!
#209000
1}
b0 ,
b0 G
b0 P
b0 -
b0 9
b0 v"
b0 H
b0 q"
b0 X
b0 m"
b0 p"
1%
1!
#210000
0%
0!
#211000
b0 U
b0 ="
b0 c
b0 <"
1q
b0 z
b0 :"
b0 u
b0 8"
b1111 y
b1000000001100 x
b1000000001100 9"
0}
1%
1!
#212000
0%
0!
#213000
b1000000001100 3"
b1000000010000 /"
0q
1.
1""
b0 p
b0 m
b0 h
b1111 l
b1000000001100 k
1%
1!
#214000
0%
0!
#215000
b0 2"
b0 H"
b1000000010000 1
b1000000010000 >
b1000000010000 _
b11 ,
b11 G
b11 P
b10 -
b10 9
b10 v"
b10 H
b0 &"
b1111 %"
b1111 I"
b1000000001100 $"
b1000000010000 ("
0.
0""
1%
1!
#216000
0%
0!
#217000
b1 [
b1 j"
1T
1)"
b0 ,
b0 G
b0 P
b0 -
b0 9
b0 v"
b0 H
1%
1!
#218000
0%
0!
#219000
b0 [
b0 j"
0T
0)"
b10 Z
b10 k"
b10 r"
1%
1!
#220000
0%
0!
#221000
b0 Z
b0 k"
b0 r"
15
1!"
1%
1!
#222000
0%
0!
#223000
b1 ,
b1 G
b1 P
b11 -
b11 9
b11 v"
b11 H
05
0!"
b1000000010000 ~
b101 A
b1000000010000 /
b1000000010000 8
b1000000010000 u"
b1000000010000 B
1%
1!
#224000
0%
0!
#225000
b1000000010001 /
b1000000010001 8
b1000000010001 u"
b1000000010001 B
b10011 3
b10011 @
b10011 t"
b10011 x"
b100 A
1%
1!
#226000
0%
0!
#227000
b10000101 3
b10000101 @
b10000101 t"
b10000101 x"
b1000000010010 /
b1000000010010 8
b1000000010010 u"
b1000000010010 B
b11 A
1%
1!
#228000
0%
0!
#229000
b1000000010011 /
b1000000010011 8
b1000000010011 u"
b1000000010011 B
b111 3
b111 @
b111 t"
b111 x"
b10 A
1%
1!
#230000
0%
0!
